ItemID,Allow Back Orders,Archive,Asset Account,Asset Appreciation,Asset Deppreciation,Asset Owner,Asset Purchase Date,Asset Warrantee Till,Base Unit,COGS Account,Height,Income Account,Item Category,Item Class,Item Classification,Item Description,Item Description(for shopping cart),Item DropDown Test,Item Group,Item Image,Item Name,Item Thumbnail Image,Length,List Price (I),List Price (NI),Manufacturer,Model ID,Purchase Unit,Sale Unit,SKU (NI),Taxable,Twe,UPC (NI),Vendor (Preffered),Vendor Cost,Vendor Minimum Qty,Vendor PartNo,Weight,Width
0,TRUE,FALSE,Stock On Hand,Item for Add,Item for Add,Manish,,,Yard,Billable Time & Expenses,10,Sales,Chintan,Class 1,AAA,Adding New Item,Adding New Item,1,sales,,Add Item 1,,10,15,15,Manu 1,111,Yard,Days,SKU 1,TRUE,Twe 1,0,Tech Inc Solutions,,,,2,10
0,TRUE,FALSE,Stock On Hand,Item for Add,Item for Add,Manish,,,Yard,Purchase,15,Sales,Test,Class 1,AAA,Adding New Item,Adding New Item,3,sales,,Add Item 2,,20,20,20,,112,Yard,Days,SKU 2,TRUE,Twe 2,0,Tech Inc Solutions,,,,4,10
0,TRUE,FALSE,Stock On Hand,Item for Add,Item for Add,Manish,,,Yard,Purchase,10,Sales,Chintan,Class 2,BBB,Adding New Item,Adding New Item,3,sales,,Add Item 3,,30,25,25,,113,Yard,Days,SKU 3,TRUE,Twe 3,0,Tech Inc Solutions,,,,6,10
0,FALSE,FALSE,Stock On Hand,Item for Add,Item for Add,Manish,,,Yard,Purchase,15,Sales,Test,Class 2,BBB,Adding New Item,Adding New Item,2,sales,,Add Item 4,,40,30,30,,114,Yard,Days,SKU 4,TRUE,Twe 4,0,A&E Cage Company,0,0,,8,10
0,FALSE,FALSE,Stock On Hand,Item for Add,Item for Add,Manish,,,Yard,Purchase,10,Sales,Chintan,Class 3,CCC,Adding New Item,Adding New Item,2,sales,,Add Item 5,,50,35,35,,115,Yard,Days,SKU 5,TRUE,Twe 5,0,A&E Cage Company,0,0,,10,10
197694,TRUE,FALSE,Stock On Hand,Item For Edit,Item For Edit,Manish,,,Days,Billable Time & Expenses,15,Sales,Test,Class 3,CCC,Edit Existing Item,Edit Existing Item,1,sales,,Edit Item 1 ,,50,40,40,abc inc.,201,Days,Yard,SKU 6,TRUE,Twe 6,0,Tech Inc Solutions,0,0,,12,10
197695,TRUE,FALSE,Stock On Hand,Item For Edit,Item For Edit,Manish,,,Days,Billable Time & Expenses,10,Sales,Chintan,Class 4,DDD,Edit Existing Item,Edit Existing Item,1,sales,,Edit Item 2,,40,45,45,abc inc.,202,Days,Yard,SKU 7,TRUE,Twe 7,0,Tech Inc Solutions,0,0,,14,10
197696,TRUE,FALSE,Stock On Hand,Item For Edit,Item For Edit,Manish,,,Days,Purchase,15,Sales,Test,Class 4,DDD,Edit Existing Item,Edit Existing Item,1,sales,,Edit Item 3,,30,50,50,abc inc.,203,Days,Yard,SKU 8,TRUE,Twe 8,0,Tech Inc Solutions,0,0,,16,10
197697,TRUE,FALSE,Stock On Hand,Item For Edit,Item For Edit,Manish,,,Days,Billable Time & Expenses,10,Sales,Chintan,Class 5,EEE,Edit Existing Item,Edit Existing Item,3,sales,,Edit Item 4,,20,55,55,abc inc,204,Days,Yard,SKU 9,TRUE,Twe 9,0,A&E Cage Company ,,,,18,10
197698,TRUE,FALSE,Stock On Hand,Item For Edit,Item For Edit,Manish,,,Days,Billable Time & Expenses,15,Sales,Test,Class 5,EEE,Edit Existing Item,Edit Existing Item,3,sales,,Edit Item 5,,10,60,60,abc inc,205,Days,Yard,SKU 10,TRUE,Twe 10,0,A&E Cage Company,,,,20,10