Item ID,Item Name,Warehouse Item ID,Warehouse Name,Warehouse Stock OnHand,Warehouse Stock Reorder,Warehouse Location,List Price (I),SKU (I),UPC (I)
197591,Manish1,0,East,100,25,MCA1,1,0,1
197592,Manish2,0,West,100,50,MCA2,2,0,1
197554,Manish3,0,Shanghai,100,75,MCA3,3,0,1
197609,Manish4,0,East,100,10,MCA4,4,3,1
197591,Manish1,154251,West,100,25,MCA1,10,0,1
197592,Manish2,154252,East,100,50,MCA2,20,0,1
197554,Manish3,154233,Shanghai,100,75,MCA3,30,0,1
197609,Manish4,154289,West,100,10,MCA4,40,3,1
