Non Biz Contact ID,Action Item Priority,Action Item Type,Action Item Activity,Due Date,Action Item Comments,IsClosed,Assign To
CONT1,High ,Task,Do the print work,5/25/2012,Test Task 1,FALSE,44302
CONT1,Normal,Phone Call,Call the Finance personnel,5/26/2012,Test Call 1,FALSE,44302
CONT1,Medium,Calandar,Demo the project via Presentation,5/27/2012,Test Demo 1,FALSE,44302
CONT2,High ,Phone Call,Call the Finance personnel,5/25/2012,Test Call 1,FALSE,44302
CONT2,Normal,Demo,Demo the project via Presentation,5/26/2012,Test Demo 1,FALSE,44302
CONT2,Medium,Calandar,Schedule the meeting,5/27/2012,Test Call 2,FALSE,44302
CONT2,High ,Task,Do the print work,5/28/2012,Test Task 2,FALSE,44302
CONT3,Normal,Schedule,Schedule the meeting,5/25/2012,Test Schedule 1,FALSE,44302
CONT3,Medium,Task,Do the print work,5/26/2012,Test Task 3,FALSE,44302
CONT3,High ,Calandar,Demo the project via Presentation,5/27/2012,Test Demo 2,FALSE,44302
CONT3,Normal,Phone Call,Call the Finance personnel,5/28/2012,Test Call 3,FALSE,44302
