<?xml version="1.0" standalone="no"?>
<!DOCTYPE svg PUBLIC "-//W3C//DTD SVG 20010904//EN"
 "http://www.w3.org/TR/2001/REC-SVG-20010904/DTD/svg10.dtd">
<svg version="1.0" xmlns="http://www.w3.org/2000/svg"
 width="128.000000pt" height="128.000000pt" viewBox="0 0 128.000000 128.000000"
 preserveAspectRatio="xMidYMid meet">
<metadata>
Created by potrace 1.13, written by Peter Selinger 2001-2015
</metadata>
<g transform="translate(0.000000,128.000000) scale(0.100000,-0.100000)"
fill="#000000" stroke="none">
<path d="M370 1105 c0 -50 -2 -56 -30 -70 -42 -21 -52 -19 -90 20 -39 41 -50
37 -106 -30 l-37 -46 37 -38 37 -38 -15 -37 c-15 -35 -16 -36 -70 -36 l-56 0
0 -75 0 -75 55 0 c53 0 56 -1 72 -35 l17 -35 -37 -38 c-20 -21 -37 -42 -37
-48 0 -5 22 -32 50 -59 l50 -49 38 37 c42 41 51 43 92 22 28 -14 30 -20 30
-70 0 -54 0 -55 30 -55 l30 0 0 145 0 145 -34 14 c-38 16 -66 59 -66 101 0 68
68 123 136 110 34 -6 84 -55 84 -81 0 -11 26 -14 145 -14 l145 0 0 30 c0 30
-1 30 -53 30 -53 0 -54 0 -69 39 l-16 39 39 39 39 38 -55 55 -55 54 -39 -38
c-38 -37 -40 -38 -75 -26 -36 12 -36 12 -36 71 l0 59 -75 0 -75 0 0 -55z"/>
<path d="M460 725 c0 -13 50 -15 390 -15 340 0 390 2 390 15 0 13 -50 15 -390
15 -340 0 -390 -2 -390 -15z"/>
<path d="M460 403 l0 -278 390 3 390 2 0 275 0 275 -390 0 -390 0 0 -277z
m680 207 l0 -30 -292 2 -293 3 -3 28 -3 27 295 0 296 0 0 -30z m0 -175 l0 -35
-190 0 -190 0 0 35 0 35 190 0 190 0 0 -35z m0 -200 l0 -35 -190 0 -190 0 0
35 0 35 190 0 190 0 0 -35z"/>
</g>
</svg>
